{
  "model": "providerModel",
  "data": [
    {
      "executer": "test",
      "name": "sendgrid",
      "provider_configuration": {
        "SENDGRID_ACCESS_TOKEN": "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"
      }
    },
    {
      "executer": "test",
      "name": "onesignal",
      "provider_configuration": {
        "APP_ID": "b332069a-3dc6-4540-b0b9-50efcaa74247",
        "API_KEY": "ZmU3ZmVhYTgtNzUxOS00NjFkLWJkNGUtMjQ2ZDNhOGM2NmY5"
      }
    },
    {
      "executer": "test",
      "name": "telegram",
      "provider_configuration": {
        "URL": "https://4bw1h3vr8g.execute-api.us-east-1.amazonaws.com/alpha/notifications"
      }
    }
  ]
}
